a1_a a2_a b1_b b2_b b3_b c1_c
0.00 0.17 0.43 0.48 0.68 0.76
0.17 0.00 0.46 0.49 0.35 0.72
0.43 0.42 0.00 0.07 0.12 0.57
0.48 0.49 0.07 0.00 0.13 0.76
0.68 0.35 0.12 0.13 0.00 0.59
0.76 0.72 0.57 0.76 0.59 0.00

